{
    "homepage": "https://gitlab.com/xeijin-dev/doom-config",
    "description": "personal '.doom.d' for use with doom-emacs-p",
    "_comment": "Categorisation: Configuration files",
    "license": {
        "identifier": "MIT",
        "url": "https://gitlab.com/xeijin-dev/doom-config/blob/master/LICENSE"
    },
    "version": "nightly",
    "depends": [
        "emacs-p"
    ],
    "url": "https://gitlab.com/xeijin-dev/doom-config/-/archive/master/doom-config-master.tar.gz",
    "extract_dir": "doom-config-master",
    "post_install": [
        "Push-Location $dir",
        "if ($env:DOOMDIR) {$env:DOOMDIR} else {$env:DOOMDIR = '../../../../home/.doom.d'}",
        "New-Item -ItemType Junction -Value ./ -Path $env:DOOMDIR -Force",
        "Pop-Location"
    ],
    "notes": [
        "-----",
        "Install doom-emacs-p after this package",
        "so that the post-installation commands",
        "will pick up the configuration files",
        "-----"
    ]
}
