{
    "homepage": "https://gitlab.com/xeijin-dev/ews-get",
    "description": "retrieve calendar entries from EWS",
    "_comment": "Categorisation: Standalone tool",
    "license": {
        "identifier": "MIT",
        "url": "https://gitlab.com/xeijin-dev/ews-get/blob/master/LICENSE"
    },
    "version": "0.1.9",
    "url": "https://dl.bintray.com/xeijin-dev/werk/ews-get-0.1.9.zip",
    "hash": "27059c5d52e226818baec3340fcfb29c6d41f9c318691143cbc2cda2a297e11b",
    "bin": [
        [
            "ews-get.exe",
            "ews-get"
        ]
    ],
    "checkver": {
        "url": "https://dl.bintray.com/xeijin-dev/werk/",
        "re": "ews-get-(\\d+\\.\\d+\\.\\d+)\\.zip",
        "reverse": true
    },
    "autoupdate": {
        "url": "https://dl.bintray.com/xeijin-dev/werk/ews-get-$version.zip",
        "hash": {
            "url": "$url.sha256"
        }
    }
}
