{
    "homepage": "https://www.knime.com/",
    "description": "KNIME Analytics Platform is the open source software for creating data science applications and services.",
    "_comment": "Categorisation: Loosely Coupled with internal code (e.g. internal REST APIs)",
    "license": {
        "identifier": "GPL-3.0-or-later",
        "url": "https://www.knime.com/downloads/full-license"
    },
    "version": "4.1.0",
    "architecture": {
        "64bit": {
            "url": "https://download.knime.org/analytics-platform/win/knime_4.1.0.win32.win32.x86_64.zip",
            "hash": "55564daaeba5b24719e3ac61076878e05dc5493d6ae5e9fc5aac4dde9271d98b"
        },
        "32bit": {
            "url": "https://download.knime.org/analytics-platform/win/knime_4.1.0.win32.win32.x86.zip",
            "hash": "088b9a5a6821a98333de7af02ad7ed6e93e04fe0e233aa20d15ebc47a85234cf"
        }
    },
    "extract_dir": "knime_4.1.0",
    "bin": [
        [
            "knime.exe",
            "knime"
        ]
    ],
    "post_install": [
        "Push-Location $dir",
        "$fullVer = [system.version]$version",
        "$pluginVer = [string]$fullVer.Major + '.' + [string]$fullVer.Minor",
        "$installPlugins = './eclipsec.exe --launcher.ini knime.ini -application org.eclipse.equinox.p2.director -noSplash -repository http://update.knime.com/analytics-platform/{0},http://update.knime.com/store/{0},http://update.knime.com/community-contributions/trusted/{0} -installIU org.knime.features.ext.chromium.feature.group,org.knime.features.ext.exttool.feature.group,org.knime.features.exttool.feature.group,org.knime.features.base.filehandling.feature.group,org.knime.features.ext.birt.feature.group,org.knime.features.js.views.feature.group,org.knime.features.js.views.labs.feature.group,org.knime.features.ext.jfreechart.feature.group,org.knime.features.network.feature.group,org.pasteur.pf2.ngs.feature.feature.group,org.knime.features.ext.perl.feature.group,com.knime.features.enterprise.client.exampleserver.feature.group,org.knime.features.python2.feature.group,com.knime.features.reporting.designer.feature.group,org.knime.features.rest.feature.group,com.knime.features.explorer.serverspace.feature.group,org.knime.features.ext.svg.feature.group,org.knime.features.ext.tableau.feature.group,org.knime.features.ext.textprocessing.feature.group,org.knime.features.ext.webservice.client.feature.group,ws.palladian.nodes.feature.feature.group,com.vernalis.knime.feature.feature.group' -f $pluginVer",
        "Invoke-Expression -Command $installPlugins",
        "Pop-Location"
    ],
    "checkver": {
        "url": "https://www.knime.com/downloads/download-knime",
        "re": "KNIME (\\d+\\.\\d+\\.\\d+)"
    },
    "autoupdate": {
        "architecture": {
            "64bit": {
                "url": "https://download.knime.org/analytics-platform/win/knime_$version.win32.win32.x86_64.zip"
            },
            "32bit": {
                "url": "https://download.knime.org/analytics-platform/win/knime_$version.win32.win32.x86.zip"
            }
        },
        "extract_dir": "knime_$version"
    },
    "shortcuts": [
        [
            "knime.exe",
            "propositum/KNIME Analytics Platform"
        ]
    ]
}
